Library\Bee\artifacts\movedfrom\Unity.Mathematics.Editor.ref.dll_13577207098549779084.movedfrom
Library\Bee\artifacts\movedfrom\Unity.Mathematics.ref.dll_648565151250324341.movedfrom
Library\Bee\artifacts\movedfrom\Unity.RenderPipeline.Universal.ShaderLibrary.ref.dll_17818338297628875796.movedfrom
Library\Bee\artifacts\movedfrom\Unity.RenderPipelines.Core.Editor.ref.dll_6881491062590760120.movedfrom
Library\Bee\artifacts\movedfrom\Unity.RenderPipelines.Core.Runtime.ref.dll_9045388994160487923.movedfrom
Library\Bee\artifacts\movedfrom\Unity.RenderPipelines.Core.ShaderLibrary.ref.dll_15358717905482185057.movedfrom
Library\Bee\artifacts\movedfrom\Unity.RenderPipelines.ShaderGraph.ShaderGraphLibrary.ref.dll_16161805587721646625.movedfrom
Library\Bee\artifacts\movedfrom\Unity.RenderPipelines.Universal.Editor.ref.dll_11169495143922535386.movedfrom
Library\Bee\artifacts\movedfrom\Unity.RenderPipelines.Universal.Runtime.ref.dll_2373296238326324145.movedfrom
Library\Bee\artifacts\movedfrom\Unity.RenderPipelines.Universal.Shaders.ref.dll_7014272461586085607.movedfrom
Library\Bee\artifacts\movedfrom\Unity.Rider.Editor.ref.dll_565157460453298584.movedfrom
Library\Bee\artifacts\movedfrom\Unity.Searcher.Editor.ref.dll_1377550698050556917.movedfrom
Library\Bee\artifacts\movedfrom\Unity.ShaderGraph.Editor.ref.dll_3574507081401804057.movedfrom
Library\Bee\artifacts\movedfrom\Unity.TextMeshPro.Editor.ref.dll_4028791150417061583.movedfrom
Library\Bee\artifacts\movedfrom\Unity.TextMeshPro.ref.dll_11868243631685928706.movedfrom
Library\Bee\artifacts\movedfrom\Unity.Timeline.Editor.ref.dll_982740893485812729.movedfrom
Library\Bee\artifacts\movedfrom\Unity.Timeline.ref.dll_8300757311124903736.movedfrom
Library\Bee\artifacts\movedfrom\Unity.VSCode.Editor.ref.dll_4856774419750939424.movedfrom
Library\Bee\artifacts\movedfrom\Unity.VisualScripting.Core.Editor.ref.dll_458458207557429540.movedfrom
Library\Bee\artifacts\movedfrom\Unity.VisualScripting.Core.ref.dll_3399541932646146909.movedfrom
Library\Bee\artifacts\movedfrom\Unity.VisualScripting.Flow.Editor.ref.dll_9479424099746919525.movedfrom
Library\Bee\artifacts\movedfrom\Unity.VisualScripting.Flow.ref.dll_8520381371119867916.movedfrom
Library\Bee\artifacts\movedfrom\Unity.VisualScripting.State.Editor.ref.dll_10328376254675632728.movedfrom
Library\Bee\artifacts\movedfrom\Unity.VisualScripting.State.ref.dll_480716782142981865.movedfrom
Library\Bee\artifacts\movedfrom\Unity.VisualStudio.Editor.ref.dll_542902423660510292.movedfrom
Library\Bee\artifacts\movedfrom\UnityEditor.UI.ref.dll_6750382132457868446.movedfrom
Library\Bee\artifacts\movedfrom\UnityEngine.UI.ref.dll_1879130396959814921.movedfrom
Library\Bee\artifacts\movedfrom\UnityEditor.CoreModule.dll_374995961047780401.movedfrom
Library\Bee\artifacts\movedfrom\UnityEditor.DeviceSimulatorModule.dll_11835003613429591904.movedfrom
Library\Bee\artifacts\movedfrom\UnityEditor.dll_12409042540478989972.movedfrom
Library\Bee\artifacts\movedfrom\UnityEditor.GraphViewModule.dll_10918522002878137285.movedfrom
Library\Bee\artifacts\movedfrom\UnityEditor.PackageManagerUIModule.dll_18134168898283042381.movedfrom
Library\Bee\artifacts\movedfrom\UnityEditor.QuickSearchModule.dll_3617189345439237639.movedfrom
Library\Bee\artifacts\movedfrom\UnityEditor.SceneTemplateModule.dll_11635924961294818152.movedfrom
Library\Bee\artifacts\movedfrom\UnityEditor.UIBuilderModule.dll_17009830836592114937.movedfrom
Library\Bee\artifacts\movedfrom\UnityEditor.UIElementsModule.dll_13797904224703072205.movedfrom
Library\Bee\artifacts\movedfrom\UnityEditor.UIElementsSamplesModule.dll_15551147035343009136.movedfrom
Library\Bee\artifacts\movedfrom\UnityEditor.UIServiceModule.dll_2666448089887690003.movedfrom
Library\Bee\artifacts\movedfrom\UnityEditor.UnityConnectModule.dll_7801911988220023655.movedfrom
Library\Bee\artifacts\movedfrom\UnityEngine.AccessibilityModule.dll_15285366330640450309.movedfrom
Library\Bee\artifacts\movedfrom\UnityEngine.AIModule.dll_6960044887517970021.movedfrom
Library\Bee\artifacts\movedfrom\UnityEngine.AndroidJNIModule.dll_4450939192258148003.movedfrom
Library\Bee\artifacts\movedfrom\UnityEngine.AnimationModule.dll_7353214987788310635.movedfrom
Library\Bee\artifacts\movedfrom\UnityEngine.ARModule.dll_1876260476407881006.movedfrom
Library\Bee\artifacts\movedfrom\UnityEngine.AssetBundleModule.dll_8510687827873397497.movedfrom
Library\Bee\artifacts\movedfrom\UnityEngine.AudioModule.dll_4141036917924570781.movedfrom
Library\Bee\artifacts\movedfrom\UnityEngine.ClothModule.dll_11556315936860996993.movedfrom
Library\Bee\artifacts\movedfrom\UnityEngine.ClusterInputModule.dll_16997265263436965421.movedfrom
Library\Bee\artifacts\movedfrom\UnityEngine.ClusterRendererModule.dll_12243919072075087076.movedfrom
Library\Bee\artifacts\movedfrom\UnityEngine.CoreModule.dll_2906251303589705564.movedfrom
Library\Bee\artifacts\movedfrom\UnityEngine.CrashReportingModule.dll_1014277917725932660.movedfrom
Library\Bee\artifacts\movedfrom\UnityEngine.DirectorModule.dll_7238155126390275193.movedfrom
Library\Bee\artifacts\movedfrom\UnityEngine.dll_16058162033667445625.movedfrom
Library\Bee\artifacts\movedfrom\UnityEngine.DSPGraphModule.dll_7621349675211885978.movedfrom
Library\Bee\artifacts\movedfrom\UnityEngine.GameCenterModule.dll_7499113193913591700.movedfrom
Library\Bee\artifacts\movedfrom\UnityEngine.GIModule.dll_17929768002680989311.movedfrom
Library\Bee\artifacts\movedfrom\UnityEngine.GridModule.dll_416072894054894931.movedfrom
Library\Bee\artifacts\movedfrom\UnityEngine.HotReloadModule.dll_16669119749365855213.movedfrom
Library\Bee\artifacts\movedfrom\UnityEngine.ImageConversionModule.dll_1575451964350608600.movedfrom
Library\Bee\artifacts\movedfrom\UnityEngine.IMGUIModule.dll_8203177570596665982.movedfrom
Library\Bee\artifacts\movedfrom\UnityEngine.InputLegacyModule.dll_531746481268601066.movedfrom
Library\Bee\artifacts\movedfrom\UnityEngine.InputModule.dll_11524063642779929409.movedfrom
Library\Bee\artifacts\movedfrom\UnityEngine.JSONSerializeModule.dll_3762776099814482831.movedfrom
Library\Bee\artifacts\movedfrom\UnityEngine.LocalizationModule.dll_3039706574386567462.movedfrom
Library\Bee\artifacts\movedfrom\UnityEngine.ParticleSystemModule.dll_7000205365067728898.movedfrom
Library\Bee\artifacts\movedfrom\UnityEngine.PerformanceReportingModule.dll_5833032503277447195.movedfrom
Library\Bee\artifacts\movedfrom\UnityEngine.Physics2DModule.dll_12876299322600214528.movedfrom
Library\Bee\artifacts\movedfrom\UnityEngine.PhysicsModule.dll_6838472412226680590.movedfrom
Library\Bee\artifacts\movedfrom\UnityEngine.ProfilerModule.dll_10860800983320216454.movedfrom
Library\Bee\artifacts\movedfrom\UnityEngine.RuntimeInitializeOnLoadManagerInitializerModule.dll_15858681976533139657.movedfrom
Library\Bee\artifacts\movedfrom\UnityEngine.ScreenCaptureModule.dll_5629427457467731953.movedfrom
Library\Bee\artifacts\movedfrom\UnityEngine.SharedInternalsModule.dll_11091908538509635624.movedfrom
Library\Bee\artifacts\movedfrom\UnityEngine.SpriteMaskModule.dll_5854299393378336014.movedfrom
Library\Bee\artifacts\movedfrom\UnityEngine.SpriteShapeModule.dll_10339480619180143363.movedfrom
Library\Bee\artifacts\movedfrom\UnityEngine.StreamingModule.dll_1918757066646425513.movedfrom
Library\Bee\artifacts\movedfrom\UnityEngine.SubstanceModule.dll_17819582281036991927.movedfrom
Library\Bee\artifacts\movedfrom\UnityEngine.SubsystemsModule.dll_13541212102628320545.movedfrom
Library\Bee\artifacts\movedfrom\UnityEngine.TerrainModule.dll_8731808821545189372.movedfrom
Library\Bee\artifacts\movedfrom\UnityEngine.TerrainPhysicsModule.dll_7034730936841814671.movedfrom
Library\Bee\artifacts\movedfrom\UnityEngine.TextCoreModule.dll_18243496769968712841.movedfrom
Library\Bee\artifacts\movedfrom\UnityEngine.TextRenderingModule.dll_8601647126904655846.movedfrom
Library\Bee\artifacts\movedfrom\UnityEngine.TilemapModule.dll_1741210104106033413.movedfrom
Library\Bee\artifacts\movedfrom\UnityEngine.TLSModule.dll_17693854263253226594.movedfrom
Library\Bee\artifacts\movedfrom\UnityEngine.UIElementsModule.dll_13847001026693816600.movedfrom
Library\Bee\artifacts\movedfrom\UnityEngine.UIElementsNativeModule.dll_5053943809508992623.movedfrom
Library\Bee\artifacts\movedfrom\UnityEngine.UIModule.dll_6632300457308931089.movedfrom
Library\Bee\artifacts\movedfrom\UnityEngine.UmbraModule.dll_12991925307061752336.movedfrom
Library\Bee\artifacts\movedfrom\UnityEngine.UNETModule.dll_13473463946606931157.movedfrom
Library\Bee\artifacts\movedfrom\UnityEngine.UnityAnalyticsModule.dll_9278869313019484670.movedfrom
Library\Bee\artifacts\movedfrom\UnityEngine.UnityConnectModule.dll_6459703024154530834.movedfrom
Library\Bee\artifacts\movedfrom\UnityEngine.UnityCurlModule.dll_11036210816776358488.movedfrom
Library\Bee\artifacts\movedfrom\UnityEngine.UnityTestProtocolModule.dll_10633979244704205510.movedfrom
Library\Bee\artifacts\movedfrom\UnityEngine.UnityWebRequestAssetBundleModule.dll_17676497939325324111.movedfrom
Library\Bee\artifacts\movedfrom\UnityEngine.UnityWebRequestAudioModule.dll_14478910103124947635.movedfrom
Library\Bee\artifacts\movedfrom\UnityEngine.UnityWebRequestModule.dll_2845194011202015063.movedfrom
Library\Bee\artifacts\movedfrom\UnityEngine.UnityWebRequestTextureModule.dll_4403653726111329512.movedfrom
Library\Bee\artifacts\movedfrom\UnityEngine.UnityWebRequestWWWModule.dll_13459498896768911076.movedfrom
Library\Bee\artifacts\movedfrom\UnityEngine.VehiclesModule.dll_15867889288291290132.movedfrom
Library\Bee\artifacts\movedfrom\UnityEngine.VFXModule.dll_8533137273039535567.movedfrom
Library\Bee\artifacts\movedfrom\UnityEngine.VideoModule.dll_6809846766184055362.movedfrom
Library\Bee\artifacts\movedfrom\UnityEngine.VirtualTexturingModule.dll_7687622079788607226.movedfrom
Library\Bee\artifacts\movedfrom\UnityEngine.VRModule.dll_12600175268914121097.movedfrom
Library\Bee\artifacts\movedfrom\UnityEngine.WindModule.dll_11431243415530075589.movedfrom
Library\Bee\artifacts\movedfrom\UnityEngine.XRModule.dll_16256749640635127527.movedfrom
Library\Bee\artifacts\movedfrom\UnityEditor.iOS.Extensions.Common.dll_4243472729828802262.movedfrom
Library\Bee\artifacts\movedfrom\UnityEditor.iOS.Extensions.Xcode.dll_8117033940669036246.movedfrom
Library\Bee\artifacts\movedfrom\Unity.VisualScripting.Antlr3.Runtime.dll_18297196403843413601.movedfrom